[
  {
    "_id": "60517418c183bd0c62199a29",
    "index": 0,
    "guid": "e836a20b-153c-4305-bd32-9dc320687b58",
    "isActive": true,
    "balance": "$2,640.06",
    "picture": "http://placehold.it/32x32",
    "age": 30,
    "eyeColor": "brown",
    "name": "Kathryn Rollins",
    "gender": "female",
    "company": "DAISU",
    "email": "kathrynrollins@daisu.com",
    "phone": "+1 (893) 413-2902",
    "address": "621 Colby Court, Cherokee, California, 5513",
    "about": "Commodo tempor proident aliqua et voluptate mollit laborum est magna quis. Minim id qui incididunt mollit irure incididunt esse laborum. Qui do est eu est officia eu ad eu culpa sit aliqua eiusmod consequat.\r\n",
    "registered": "2019-05-22T03:54:17 +07:00",
    "latitude": 71.672733,
    "longitude": 76.686799,
    "tags": [
      "ullamco",
      "occaecat",
      "excepteur",
      "fugiat",
      "eu",
      "duis",
      "occaecat"
    ],
    "friends": [
      {
        "id": 0,
        "name": "Wynn Jordan"
      },
      {
        "id": 1,
        "name": "Reyes Battle"
      },
      {
        "id": 2,
        "name": "Haynes Whitfield"
      }
    ],
    "greeting": "Hello, Kathryn Rollins! You have 6 unread messages.",
    "favoriteFruit": "apple"
  },
  {
    "_id": "6051741898ab4c2771fae88e",
    "index": 1,
    "guid": "df5670a4-ea84-46c6-8f94-d452b22345db",
    "isActive": true,
    "balance": "$1,234.29",
    "picture": "http://placehold.it/32x32",
    "age": 24,
    "eyeColor": "green",
    "name": "Chasity Pollard",
    "gender": "female",
    "company": "CENTREE",
    "email": "chasitypollard@centree.com",
    "phone": "+1 (873) 565-3086",
    "address": "632 Cove Lane, Walland, North Carolina, 1724",
    "about": "Lorem fugiat sunt fugiat amet do. Cupidatat pariatur culpa anim ut duis. Quis et sint veniam consequat voluptate Lorem quis voluptate voluptate do dolore deserunt consequat.\r\n",
    "registered": "2015-03-02T11:31:05 +08:00",
    "latitude": -88.825687,
    "longitude": -110.139739,
    "tags": [
      "dolore",
      "officia",
      "quis",
      "commodo",
      "velit",
      "exercitation",
      "nulla"
    ],
    "friends": [
      {
        "id": 0,
        "name": "Nelson Meyers"
      },
      {
        "id": 1,
        "name": "Noelle Estrada"
      },
      {
        "id": 2,
        "name": "Orr Smith"
      }
    ],
    "greeting": "Hello, Chasity Pollard! You have 4 unread messages.",
    "favoriteFruit": "strawberry"
  },
  {
    "_id": "6051741825c5481cd3b48e69",
    "index": 2,
    "guid": "954b7e05-8cb5-458b-963b-8432573aa176",
    "isActive": true,
    "balance": "$3,707.53",
    "picture": "http://placehold.it/32x32",
    "age": 35,
    "eyeColor": "blue",
    "name": "Sherman Cabrera",
    "gender": "male",
    "company": "BOILCAT",
    "email": "shermancabrera@boilcat.com",
    "phone": "+1 (913) 410-3042",
    "address": "680 Belvidere Street, Machias, Tennessee, 9118",
    "about": "Minim dolore duis eu quis excepteur adipisicing exercitation ut cillum aliquip. Magna tempor consectetur qui occaecat. Ullamco commodo ipsum non aliqua tempor consectetur nostrud sunt irure id esse duis. Pariatur ullamco occaecat mollit ut aliqua consectetur reprehenderit pariatur quis consequat qui nulla commodo ex. Exercitation minim eiusmod nisi pariatur quis dolore enim enim. Proident aute cillum labore deserunt dolore aliqua tempor occaecat excepteur esse labore qui.\r\n",
    "registered": "2020-05-02T09:10:15 +07:00",
    "latitude": -22.012047,
    "longitude": -98.770407,
    "tags": [
      "non",
      "incididunt",
      "esse",
      "laborum",
      "ea",
      "cupidatat",
      "anim"
    ],
    "friends": [
      {
        "id": 0,
        "name": "Charmaine Hines"
      },
      {
        "id": 1,
        "name": "Deanne Kerr"
      },
      {
        "id": 2,
        "name": "Lyons Mcguire"
      }
    ],
    "greeting": "Hello, Sherman Cabrera! You have 4 unread messages.",
    "favoriteFruit": "apple"
  },
  {
    "_id": "6051741833987a3991889613",
    "index": 3,
    "guid": "55fa7f05-6bbb-4f4f-9709-69642fddfa1b",
    "isActive": true,
    "balance": "$2,103.43",
    "picture": "http://placehold.it/32x32",
    "age": 32,
    "eyeColor": "brown",
    "name": "Anna Landry",
    "gender": "female",
    "company": "ZILLANET",
    "email": "annalandry@zillanet.com",
    "phone": "+1 (990) 586-2181",
    "address": "903 Llama Court, Dubois, Minnesota, 9551",
    "about": "Aliqua eiusmod Lorem cupidatat et est qui. Culpa veniam tempor anim pariatur commodo nulla culpa. Minim incididunt aute et ea cillum consequat laboris exercitation. Do officia irure consectetur ad anim eiusmod sint nisi in consectetur proident duis Lorem ut.\r\n",
    "registered": "2019-04-10T05:40:03 +07:00",
    "latitude": 85.149551,
    "longitude": 147.604008,
    "tags": [
      "officia",
      "aute",
      "velit",
      "cupidatat",
      "elit",
      "minim",
      "adipisicing"
    ],
    "friends": [
      {
        "id": 0,
        "name": "Clarissa Small"
      },
      {
        "id": 1,
        "name": "Ward Riggs"
      },
      {
        "id": 2,
        "name": "Sanford Mcbride"
      }
    ],
    "greeting": "Hello, Anna Landry! You have 4 unread messages.",
    "favoriteFruit": "strawberry"
  },
  {
    "_id": "60517418c6cae8b7235d2222",
    "index": 4,
    "guid": "268b5517-9871-4658-b6f1-4015e56925ab",
    "isActive": false,
    "balance": "$2,958.89",
    "picture": "http://placehold.it/32x32",
    "age": 29,
    "eyeColor": "green",
    "name": "Fanny Logan",
    "gender": "female",
    "company": "PODUNK",
    "email": "fannylogan@podunk.com",
    "phone": "+1 (854) 418-2608",
    "address": "196 Gallatin Place, Hiko, Vermont, 4972",
    "about": "Esse elit culpa veniam adipisicing Lorem in ea voluptate in enim. Id nulla Lorem mollit laborum irure incididunt. Minim aliquip est qui laboris aliqua. Commodo nulla veniam elit incididunt amet nisi incididunt voluptate aute nulla. Sit ex cillum occaecat elit velit ea tempor reprehenderit magna anim.\r\n",
    "registered": "2015-04-23T10:23:02 +07:00",
    "latitude": -70.191219,
    "longitude": -35.18632,
    "tags": [
      "aliqua",
      "est",
      "ea",
      "incididunt",
      "aliqua",
      "Lorem",
      "et"
    ],
    "friends": [
      {
        "id": 0,
        "name": "Bentley Tillman"
      },
      {
        "id": 1,
        "name": "Cochran Love"
      },
      {
        "id": 2,
        "name": "Sherrie Doyle"
      }
    ],
    "greeting": "Hello, Fanny Logan! You have 1 unread messages.",
    "favoriteFruit": "banana"
  },
  {
    "_id": "60517418a9408d8857d8227b",
    "index": 5,
    "guid": "c6466be8-7100-48cb-be83-075350a0b660",
    "isActive": false,
    "balance": "$3,668.43",
    "picture": "http://placehold.it/32x32",
    "age": 34,
    "eyeColor": "brown",
    "name": "Erin Serrano",
    "gender": "female",
    "company": "QUARX",
    "email": "erinserrano@quarx.com",
    "phone": "+1 (897) 548-2327",
    "address": "741 Brightwater Avenue, Tampico, Rhode Island, 6707",
    "about": "Ea eiusmod adipisicing minim commodo ut velit ad nostrud irure ut aliqua tempor laboris et. Ut fugiat ut dolore consequat eu dolor. Dolor exercitation sit nisi dolor. Irure dolor ea pariatur in occaecat sunt eu consequat reprehenderit dolor est quis cupidatat. Aliqua eiusmod est dolore consequat dolore aliquip amet deserunt aliquip minim exercitation. Cupidatat excepteur anim dolor officia occaecat et velit duis dolore veniam.\r\n",
    "registered": "2017-12-01T10:00:47 +08:00",
    "latitude": 73.746063,
    "longitude": -126.163205,
    "tags": [
      "deserunt",
      "voluptate",
      "do",
      "proident",
      "nostrud",
      "deserunt",
      "aute"
    ],
    "friends": [
      {
        "id": 0,
        "name": "Gibbs Gilliam"
      },
      {
        "id": 1,
        "name": "Guy Calhoun"
      },
      {
        "id": 2,
        "name": "Francis Frost"
      }
    ],
    "greeting": "Hello, Erin Serrano! You have 5 unread messages.",
    "favoriteFruit": "strawberry"
  }
]