[
  {
    "title" : "Cribbage hand scorer",
    "type" : "Personal"
  },
  {
    "title" : "Portfolio site",
    "type" : "Personal"
  },
  {
    "title" : "Ordering Method Analysis Tool (OMAT)",
    "type" : "Professional"
  },
  {
    "title" : "Consumption Based Ordering (CBO)",
    "type" : "Professional"
  },
  {
    "title" : ""
  }
]